\relax 
\providecommand\hyper@newdestlabel[2]{}
\@nameuse{bbl@beforestart}
\catcode `"\active 
\providecommand\HyperFirstAtBeginDocument{\AtBeginDocument}
\HyperFirstAtBeginDocument{\ifx\hyper@anchor\@undefined
\global\let\oldcontentsline\contentsline
\gdef\contentsline#1#2#3#4{\oldcontentsline{#1}{#2}{#3}}
\global\let\oldnewlabel\newlabel
\gdef\newlabel#1#2{\newlabelxx{#1}#2}
\gdef\newlabelxx#1#2#3#4#5#6{\oldnewlabel{#1}{{#2}{#3}}}
\AtEndDocument{\ifx\hyper@anchor\@undefined
\let\contentsline\oldcontentsline
\let\newlabel\oldnewlabel
\fi}
\fi}
\global\let\hyper@last\relax 
\gdef\HyperFirstAtBeginDocument#1{#1}
\providecommand\HyField@AuxAddToFields[1]{}
\providecommand\HyField@AuxAddToCoFields[2]{}
\babel@aux{portuguese}{}
\@writefile{toc}{\contentsline {section}{\numberline {Questao 1}}{1}{section.1}\protected@file@percent }
\@writefile{toc}{\contentsline {subsection}{\numberline {a)}Tensão média de saída}{1}{subsection.1.1}\protected@file@percent }
\@writefile{toc}{\contentsline {subsection}{\numberline {b)}Potência na carga}{1}{subsection.1.2}\protected@file@percent }
\@writefile{toc}{\contentsline {subsection}{\numberline {c)}Fator de potência}{1}{subsection.1.3}\protected@file@percent }
\@writefile{toc}{\contentsline {subsection}{\numberline {d)}Fator de deslocamento da fundamental}{1}{subsection.1.4}\protected@file@percent }
\@writefile{toc}{\contentsline {subsection}{\numberline {e)}Fator de forma da corrente}{1}{subsection.1.5}\protected@file@percent }
\@writefile{toc}{\contentsline {subsection}{\numberline {f)}Distorção Harmônica Total da corrente}{1}{subsection.1.6}\protected@file@percent }
\@writefile{toc}{\contentsline {section}{\numberline {Questao 2}}{2}{section.2}\protected@file@percent }
\@writefile{lof}{\contentsline {figure}{\numberline {1}{\ignorespaces Esquemático do circuito simulado.}}{2}{figure.1}\protected@file@percent }
\newlabel{fig.circuit}{{1}{2}{Esquemático do circuito simulado}{figure.1}{}}
\@writefile{toc}{\contentsline {subsection}{\numberline {a)}Fator de potência visto pela fonte}{2}{subsection.2.1}\protected@file@percent }
\@writefile{toc}{\contentsline {subsection}{\numberline {b)}DHT da corrente na fonte}{2}{subsection.2.2}\protected@file@percent }
\@writefile{toc}{\contentsline {subsection}{\numberline {c)}DHT da tensão na entrada do retificador (Van)}{2}{subsection.2.3}\protected@file@percent }
\@writefile{toc}{\contentsline {subsection}{\numberline {d)}Determine, pela simulação, a potência ativa entregue pela fonte e a potência na carga. Comente}{2}{subsection.2.4}\protected@file@percent }
\@writefile{lof}{\contentsline {figure}{\numberline {2}{\ignorespaces Esquemático do circuito simulado.}}{3}{figure.2}\protected@file@percent }
\newlabel{fig.results}{{2}{3}{Esquemático do circuito simulado}{figure.2}{}}
\@writefile{toc}{\contentsline {section}{\numberline {Questao 3}}{3}{section.3}\protected@file@percent }
\@writefile{toc}{\contentsline {subsection}{\numberline {a)}Justifique a necessidade de um sistema de armazenamento de energia para ser utilizado em conjunto com a geração eólica}{3}{subsection.3.1}\protected@file@percent }
\@writefile{toc}{\contentsline {subsection}{\numberline {b)}Qual a potência mínima do gerador da PCH?}{4}{subsection.3.2}\protected@file@percent }
\@writefile{toc}{\contentsline {subsection}{\numberline {c)}Sabendo que o reservatório de água está a 100 m de altura, qual a vazão do bombeamento de água e em que período do ano deve ocorrer para que o sistema seja energeticamente equilibrado. Considere g=10m/s2 e que a densidade da água é de 1kg/litro.}{4}{subsection.3.3}\protected@file@percent }
\@writefile{toc}{\contentsline {section}{\numberline {Questao 4}}{4}{section.4}\protected@file@percent }
\@writefile{toc}{\contentsline {subsection}{\numberline {a)}Tensão e corrente eficazes totais: Vef, Ief; e potência aparente S}{4}{subsection.4.1}\protected@file@percent }
\@writefile{toc}{\contentsline {subsection}{\numberline {b)}Distorção harmônica total de tensão e corrente: $DHT_V$, $DHT_I$}{5}{subsection.4.2}\protected@file@percent }
\@writefile{toc}{\contentsline {subsection}{\numberline {c)}Fator de potência FP}{5}{subsection.4.3}\protected@file@percent }
\@writefile{toc}{\contentsline {subsection}{\numberline {d)}Fator de deslocamento da fundamental}{5}{subsection.4.4}\protected@file@percent }
