\relax 
\providecommand\hyper@newdestlabel[2]{}
\@nameuse{bbl@beforestart}
\catcode `"\active 
\providecommand\HyperFirstAtBeginDocument{\AtBeginDocument}
\HyperFirstAtBeginDocument{\ifx\hyper@anchor\@undefined
\global\let\oldcontentsline\contentsline
\gdef\contentsline#1#2#3#4{\oldcontentsline{#1}{#2}{#3}}
\global\let\oldnewlabel\newlabel
\gdef\newlabel#1#2{\newlabelxx{#1}#2}
\gdef\newlabelxx#1#2#3#4#5#6{\oldnewlabel{#1}{{#2}{#3}}}
\AtEndDocument{\ifx\hyper@anchor\@undefined
\let\contentsline\oldcontentsline
\let\newlabel\oldnewlabel
\fi}
\fi}
\global\let\hyper@last\relax 
\gdef\HyperFirstAtBeginDocument#1{#1}
\providecommand\HyField@AuxAddToFields[1]{}
\providecommand\HyField@AuxAddToCoFields[2]{}
\babel@aux{portuguese}{}
\@writefile{toc}{\contentsline {section}{\numberline {Questao 1}}{1}{section.1}\protected@file@percent }
\@writefile{toc}{\contentsline {subsection}{\numberline {a)}Determine a mínima tensão Vw (módulo e fase) para que seja possível ao sistema eólico exportar 200 MW. Por simplicidade, considere que VPAC é igual a Vg e desconsidere as resistências do circuito. Simule (no simulador de sua preferência) o circuito, verifique os resultados e comente.}{1}{subsection.1.1}\protected@file@percent }
\@writefile{toc}{\contentsline {subsection}{\numberline {b)}Adicione uma distorção de tensão de 1\% na 11a harmônica na tensão do sistema (Vg). Calcule a distorção harmônica que resulta na tensão no PAC. Simule e comente o comportamento do circuito nessa condição.}{1}{subsection.1.2}\protected@file@percent }
\@writefile{lof}{\contentsline {figure}{\numberline {1}{\ignorespaces Circuito utilizado para simulação.}}{2}{figure.1}\protected@file@percent }
\newlabel{fig.sim.circuit.b}{{1}{2}{Circuito utilizado para simulação}{figure.1}{}}
\@writefile{lof}{\contentsline {figure}{\numberline {2}{\ignorespaces Formas de onda em $V_{PAC}$, $V_{W}$ e $V_{g}$, de cima para baixo, respectivamente.}}{2}{figure.2}\protected@file@percent }
\newlabel{fig.sim.results.b}{{2}{2}{Formas de onda em $V_{PAC}$, $V_{W}$ e $V_{g}$, de cima para baixo, respectivamente}{figure.2}{}}
\@writefile{toc}{\contentsline {subsection}{\numberline {c)}O proprietário do parque eólico foi instado (pelo operador da rede) a instalar um filtro para eliminar a distorção da tensão no PAC (mesmo que não seja culpa dele). Dimensione um filtro LC, sintonizando precisamente na harmônica, usando um indutor de 2 mH com uma resistência de amortecimento de 1 $\Omega $. Insira na simulação, verifique e comente a eficácia na filtragem da tensão do PAC. Verifique o valor da DHT da tensão no PAC após o transitório de energização do filtro.}{2}{subsection.1.3}\protected@file@percent }
\@writefile{lof}{\contentsline {figure}{\numberline {3}{\ignorespaces Circuito utilizado para simulação.}}{3}{figure.3}\protected@file@percent }
\newlabel{fig.sim.circuit.c}{{3}{3}{Circuito utilizado para simulação}{figure.3}{}}
\@writefile{lof}{\contentsline {figure}{\numberline {4}{\ignorespaces Formas de onda em $V_{PAC}$, $V_{W}$ e $V_{g}$, de cima para baixo, respectivamente.}}{4}{figure.4}\protected@file@percent }
\newlabel{fig.sim.results.c}{{4}{4}{Formas de onda em $V_{PAC}$, $V_{W}$ e $V_{g}$, de cima para baixo, respectivamente}{figure.4}{}}
\@writefile{toc}{\contentsline {subsection}{\numberline {d)}Com o filtro instalado, analise e comente a corrente injetada pelo parque eólico e a corrente que circula pela fonte Vg. Determine as respectivas DHTs. Comente.}{4}{subsection.1.4}\protected@file@percent }
\@writefile{lof}{\contentsline {figure}{\numberline {5}{\ignorespaces Em azul, corrente injetada pelo parque eólico; Em vermelho, corrente que circula à rede.}}{4}{figure.5}\protected@file@percent }
\newlabel{fig.sim.results.d}{{5}{4}{Em azul, corrente injetada pelo parque eólico; Em vermelho, corrente que circula à rede}{figure.5}{}}
\@writefile{toc}{\contentsline {subsection}{\numberline {e)}Comente, do ponto de vista de melhoria da qualidade da energia, a exigência imposta ao parque eólico em relação à filtragem.}{5}{subsection.1.5}\protected@file@percent }
\@writefile{toc}{\contentsline {subsection}{\numberline {f)}Estime a potência reativa do filtro na fundamental (suponha Vpac=Vg). Calcule a potência aparente no em Vg após a conexão do filtro.}{5}{subsection.1.6}\protected@file@percent }
\@writefile{toc}{\contentsline {subsection}{\numberline {g)}Verifique e comente essas potências na simulação do circuito.}{5}{subsection.1.7}\protected@file@percent }
\@writefile{toc}{\contentsline {subsection}{\numberline {h)}Dado que a rede já apresenta uma distorção na tensão, caso o sistema eólico tenha que injetar uma corrente senoidal, como deve ser alterada a tensão produzida pelo conversor do gerador eólico?}{5}{subsection.1.8}\protected@file@percent }
\@writefile{toc}{\contentsline {subsection}{\numberline {i)}Retire o filtro e simule o circuito com a tensão do sistema eólico modificada para injetar corrente senoidal, mesmo com a rede distorcida.}{5}{subsection.1.9}\protected@file@percent }
\@writefile{toc}{\contentsline {subsection}{\numberline {j)}Verifique as DHTs da tensão no PAC, da corrente de saída do sistema eólico e da corrente injetada na rede.}{5}{subsection.1.10}\protected@file@percent }
