\relax 
\providecommand\hyper@newdestlabel[2]{}
\@nameuse{bbl@beforestart}
\catcode `"\active 
\providecommand\HyperFirstAtBeginDocument{\AtBeginDocument}
\HyperFirstAtBeginDocument{\ifx\hyper@anchor\@undefined
\global\let\oldcontentsline\contentsline
\gdef\contentsline#1#2#3#4{\oldcontentsline{#1}{#2}{#3}}
\global\let\oldnewlabel\newlabel
\gdef\newlabel#1#2{\newlabelxx{#1}#2}
\gdef\newlabelxx#1#2#3#4#5#6{\oldnewlabel{#1}{{#2}{#3}}}
\AtEndDocument{\ifx\hyper@anchor\@undefined
\let\contentsline\oldcontentsline
\let\newlabel\oldnewlabel
\fi}
\fi}
\global\let\hyper@last\relax 
\gdef\HyperFirstAtBeginDocument#1{#1}
\providecommand\HyField@AuxAddToFields[1]{}
\providecommand\HyField@AuxAddToCoFields[2]{}
\babel@aux{portuguese}{}
\@writefile{lof}{\contentsline {figure}{\numberline {1}{\ignorespaces Esquemático do circuito flyback simulado.}}{1}{figure.1}\protected@file@percent }
\newlabel{fig.1}{{1}{1}{Esquemático do circuito flyback simulado}{figure.1}{}}
\newlabel{eq.flyback.vo}{{1}{1}{}{equation.0.1}{}}
\newlabel{eq.flyback.ripple.vo}{{2}{1}{}{equation.0.2}{}}
\@writefile{lof}{\contentsline {figure}{\numberline {2}{\ignorespaces Tensão de saída do circuito.}}{2}{figure.2}\protected@file@percent }
\newlabel{fig.flyback.vo}{{2}{2}{Tensão de saída do circuito}{figure.2}{}}
\@writefile{lof}{\contentsline {figure}{\numberline {3}{\ignorespaces Ripple na tensão de saída do circuito.}}{2}{figure.3}\protected@file@percent }
\newlabel{fig.flyback.ripple.vo}{{3}{2}{Ripple na tensão de saída do circuito}{figure.3}{}}
\@writefile{lof}{\contentsline {figure}{\numberline {4}{\ignorespaces Tensão de observada sobre o dreno do transistor.}}{2}{figure.4}\protected@file@percent }
\newlabel{fig.flyback.vds}{{4}{2}{Tensão de observada sobre o dreno do transistor}{figure.4}{}}
\newlabel{eq.flyback.ripple.corrente}{{3}{3}{}{equation.0.3}{}}
\@writefile{lof}{\contentsline {figure}{\numberline {5}{\ignorespaces Variação de corrente observada sobre os indutores do primário (cor vermelho claro) e secundário (cor azul).}}{3}{figure.5}\protected@file@percent }
\newlabel{fig.flyback.ripple.indutores}{{5}{3}{Variação de corrente observada sobre os indutores do primário (cor vermelho claro) e secundário (cor azul)}{figure.5}{}}
\@writefile{lof}{\contentsline {figure}{\numberline {6}{\ignorespaces Tensão de saída do circuito.}}{3}{figure.6}\protected@file@percent }
\newlabel{fig.flyback.vo.095}{{6}{3}{Tensão de saída do circuito}{figure.6}{}}
\@writefile{lof}{\contentsline {figure}{\numberline {7}{\ignorespaces Tensão de observada sobre o dreno do transistor.}}{4}{figure.7}\protected@file@percent }
\newlabel{fig.flyback.vds.095}{{7}{4}{Tensão de observada sobre o dreno do transistor}{figure.7}{}}
\@writefile{lof}{\contentsline {figure}{\numberline {8}{\ignorespaces Variação de corrente observada sobre os indutores do primário (cor vermelho claro) e secundário (cor azul).}}{4}{figure.8}\protected@file@percent }
\newlabel{fig.flyback.ripple.indutores.095}{{8}{4}{Variação de corrente observada sobre os indutores do primário (cor vermelho claro) e secundário (cor azul)}{figure.8}{}}
\@writefile{lof}{\contentsline {figure}{\numberline {9}{\ignorespaces Esquemático do circuito com chaveamento MLP.}}{5}{figure.9}\protected@file@percent }
\newlabel{fig.mlp.esquematico}{{9}{5}{Esquemático do circuito com chaveamento MLP}{figure.9}{}}
\@writefile{lof}{\contentsline {figure}{\numberline {10}{\ignorespaces Tensão observada sobre a carga (traço cor verde) e corrente vista sobre o indutor (cor vermelha).}}{5}{figure.10}\protected@file@percent }
\newlabel{fig.mlp.corrente.tensao}{{10}{5}{Tensão observada sobre a carga (traço cor verde) e corrente vista sobre o indutor (cor vermelha)}{figure.10}{}}
\@writefile{lof}{\contentsline {figure}{\numberline {11}{\ignorespaces Esquemático do circuito com chaveamento MLC.}}{6}{figure.11}\protected@file@percent }
\newlabel{fig.mlc.esquematico}{{11}{6}{Esquemático do circuito com chaveamento MLC}{figure.11}{}}
\@writefile{lof}{\contentsline {figure}{\numberline {12}{\ignorespaces Tensão observada sobre a carga (traço cor verde) e corrente vista sobre o indutor (cor vermelha).}}{6}{figure.12}\protected@file@percent }
\newlabel{fig.mlc.corrente.tensao}{{12}{6}{Tensão observada sobre a carga (traço cor verde) e corrente vista sobre o indutor (cor vermelha)}{figure.12}{}}
\@writefile{lof}{\contentsline {figure}{\numberline {13}{\ignorespaces Sinal de tensão (cor verde), visto após bloco limitador, e corrente (cor vermelha), observada sobre o indutor. À esquerda MLP e à direita MLC.}}{7}{figure.13}\protected@file@percent }
\newlabel{fig.comparacao}{{13}{7}{Sinal de tensão (cor verde), visto após bloco limitador, e corrente (cor vermelha), observada sobre o indutor. À esquerda MLP e à direita MLC}{figure.13}{}}
\@writefile{lof}{\contentsline {figure}{\numberline {14}{\ignorespaces Espectro da corrente sobre o indutor. À esquerda MLP e à direita MLC.}}{7}{figure.14}\protected@file@percent }
\newlabel{fig.espectro.corrente}{{14}{7}{Espectro da corrente sobre o indutor. À esquerda MLP e à direita MLC}{figure.14}{}}
\@writefile{lof}{\contentsline {figure}{\numberline {15}{\ignorespaces Espectro da tensão após bloco limitador. À esquerda MLP e à direita MLC.}}{8}{figure.15}\protected@file@percent }
\newlabel{fig.espectro.tensao}{{15}{8}{Espectro da tensão após bloco limitador. À esquerda MLP e à direita MLC}{figure.15}{}}
\newlabel{eq.vo.foward}{{4}{9}{}{equation.0.4}{}}
