\relax 
\providecommand\hyper@newdestlabel[2]{}
\@nameuse{bbl@beforestart}
\catcode `"\active 
\providecommand\HyperFirstAtBeginDocument{\AtBeginDocument}
\HyperFirstAtBeginDocument{\ifx\hyper@anchor\@undefined
\global\let\oldcontentsline\contentsline
\gdef\contentsline#1#2#3#4{\oldcontentsline{#1}{#2}{#3}}
\global\let\oldnewlabel\newlabel
\gdef\newlabel#1#2{\newlabelxx{#1}#2}
\gdef\newlabelxx#1#2#3#4#5#6{\oldnewlabel{#1}{{#2}{#3}}}
\AtEndDocument{\ifx\hyper@anchor\@undefined
\let\contentsline\oldcontentsline
\let\newlabel\oldnewlabel
\fi}
\fi}
\global\let\hyper@last\relax 
\gdef\HyperFirstAtBeginDocument#1{#1}
\providecommand\HyField@AuxAddToFields[1]{}
\providecommand\HyField@AuxAddToCoFields[2]{}
\babel@aux{portuguese}{}
\newlabel{eq:estatico}{{1}{1}{}{equation.0.1}{}}
\newlabel{eq:estatico2}{{2}{1}{}{equation.0.2}{}}
\newlabel{eq:dinamico_algebrico}{{3}{2}{}{equation.0.3}{}}
\newlabel{eq:dinamico}{{4}{2}{}{equation.0.4}{}}
\@writefile{lof}{\contentsline {figure}{\numberline {1}{\ignorespaces Diagrama de bode do circuito considerando o efeito de Rse.}}{2}{figure.1}\protected@file@percent }
\newlabel{fig.bode.rse}{{1}{2}{Diagrama de bode do circuito considerando o efeito de Rse}{figure.1}{}}
\newlabel{eq:semrse}{{5}{2}{}{equation.0.5}{}}
\@writefile{lof}{\contentsline {figure}{\numberline {2}{\ignorespaces Diagrama de bode do circuito desconsiderando o efeito de Rse.}}{3}{figure.2}\protected@file@percent }
\newlabel{fig.bode.sem.rse}{{2}{3}{Diagrama de bode do circuito desconsiderando o efeito de Rse}{figure.2}{}}
\@writefile{lof}{\contentsline {figure}{\numberline {3}{\ignorespaces Esquemático utilizado para o conversor Buck e função de transferência completa.}}{3}{figure.3}\protected@file@percent }
\newlabel{fig.esquematico.buck}{{3}{3}{Esquemático utilizado para o conversor Buck e função de transferência completa}{figure.3}{}}
\@writefile{lof}{\contentsline {figure}{\numberline {4}{\ignorespaces Comparação do degrau unitário sobre o modelo linearizado (curva em vermelho) e resposta do conversor a uma variação de 10 \% do ciclo de trabalho (curva em verde).}}{4}{figure.4}\protected@file@percent }
\newlabel{fig.step}{{4}{4}{Comparação do degrau unitário sobre o modelo linearizado (curva em vermelho) e resposta do conversor a uma variação de 10 \% do ciclo de trabalho (curva em verde)}{figure.4}{}}
\@writefile{lof}{\contentsline {figure}{\numberline {5}{\ignorespaces Esquemático utilizado para o simulação do compensador tipo 3.}}{5}{figure.5}\protected@file@percent }
\newlabel{fig.esquematico.compensador}{{5}{5}{Esquemático utilizado para o simulação do compensador tipo 3}{figure.5}{}}
\@writefile{lof}{\contentsline {figure}{\numberline {6}{\ignorespaces Diagrama de bode do compensador tipo 3 projetado.}}{5}{figure.6}\protected@file@percent }
\newlabel{fig.bode.compensador}{{6}{5}{Diagrama de bode do compensador tipo 3 projetado}{figure.6}{}}
\@writefile{lof}{\contentsline {figure}{\numberline {7}{\ignorespaces Diagrama de bode do compensador tipo 3 em série com a planta, em malha aberta.}}{6}{figure.7}\protected@file@percent }
\newlabel{fig.bode.compensador.e.planta}{{7}{6}{Diagrama de bode do compensador tipo 3 em série com a planta, em malha aberta}{figure.7}{}}
\@writefile{lof}{\contentsline {figure}{\numberline {8}{\ignorespaces Esquemático do modelo utilizado para circuito de chaveamento com compeansador realimentado.}}{6}{figure.8}\protected@file@percent }
\newlabel{fig.esquematico.realimentado}{{8}{6}{Esquemático do modelo utilizado para circuito de chaveamento com compeansador realimentado}{figure.8}{}}
\@writefile{lof}{\contentsline {figure}{\numberline {9}{\ignorespaces Resposta ao degrau de 10\% comparativa: em vermelho a curva correspondente ao circuito chaveado; em verde a curva do modelo de função de transferência.}}{7}{figure.9}\protected@file@percent }
\newlabel{fig.comparacao.transiente}{{9}{7}{Resposta ao degrau de 10\% comparativa: em vermelho a curva correspondente ao circuito chaveado; em verde a curva do modelo de função de transferência}{figure.9}{}}
