\relax 
\providecommand\hyper@newdestlabel[2]{}
\@nameuse{bbl@beforestart}
\catcode `"\active 
\providecommand\HyperFirstAtBeginDocument{\AtBeginDocument}
\HyperFirstAtBeginDocument{\ifx\hyper@anchor\@undefined
\global\let\oldcontentsline\contentsline
\gdef\contentsline#1#2#3#4{\oldcontentsline{#1}{#2}{#3}}
\global\let\oldnewlabel\newlabel
\gdef\newlabel#1#2{\newlabelxx{#1}#2}
\gdef\newlabelxx#1#2#3#4#5#6{\oldnewlabel{#1}{{#2}{#3}}}
\AtEndDocument{\ifx\hyper@anchor\@undefined
\let\contentsline\oldcontentsline
\let\newlabel\oldnewlabel
\fi}
\fi}
\global\let\hyper@last\relax 
\gdef\HyperFirstAtBeginDocument#1{#1}
\providecommand\HyField@AuxAddToFields[1]{}
\providecommand\HyField@AuxAddToCoFields[2]{}
\babel@aux{portuguese}{}
\newlabel{eq.4}{{1}{2}{}{equation.0.1}{}}
\newlabel{eq.1}{{2}{3}{}{equation.0.2}{}}
\newlabel{eq.2}{{3}{3}{}{equation.0.3}{}}
\newlabel{eq.3}{{4}{3}{}{equation.0.4}{}}
\newlabel{eq.5}{{5}{3}{}{equation.0.5}{}}
\@writefile{lof}{\contentsline {figure}{\numberline {1}{\ignorespaces Esquemático do circuito simulado.}}{4}{figure.1}\protected@file@percent }
\newlabel{fig.1}{{1}{4}{Esquemático do circuito simulado}{figure.1}{}}
\@writefile{lof}{\contentsline {figure}{\numberline {2}{\ignorespaces Transiente parametrizado por Ro, 4 $\Omega $ e 10 $\Omega $.}}{4}{figure.2}\protected@file@percent }
\newlabel{fig.2}{{2}{4}{Transiente parametrizado por Ro, 4 $\Omega $ e 10 $\Omega $}{figure.2}{}}
\@writefile{lof}{\contentsline {figure}{\numberline {3}{\ignorespaces Transiente com Ro = 26,6. Conversor em MCD.}}{5}{figure.3}\protected@file@percent }
\newlabel{fig.3}{{3}{5}{Transiente com Ro = 26,6. Conversor em MCD}{figure.3}{}}
