\relax 
\providecommand\hyper@newdestlabel[2]{}
\catcode `"\active 
\providecommand\HyperFirstAtBeginDocument{\AtBeginDocument}
\HyperFirstAtBeginDocument{\ifx\hyper@anchor\@undefined
\global\let\oldcontentsline\contentsline
\gdef\contentsline#1#2#3#4{\oldcontentsline{#1}{#2}{#3}}
\global\let\oldnewlabel\newlabel
\gdef\newlabel#1#2{\newlabelxx{#1}#2}
\gdef\newlabelxx#1#2#3#4#5#6{\oldnewlabel{#1}{{#2}{#3}}}
\AtEndDocument{\ifx\hyper@anchor\@undefined
\let\contentsline\oldcontentsline
\let\newlabel\oldnewlabel
\fi}
\fi}
\global\let\hyper@last\relax 
\gdef\HyperFirstAtBeginDocument#1{#1}
\providecommand\HyField@AuxAddToFields[1]{}
\providecommand\HyField@AuxAddToCoFields[2]{}
\babel@aux{portuguese}{}
\@writefile{lol}{\contentsline {lstlisting}{../main\textunderscore apito\textunderscore trem.m}{1}{lstlisting.-1}}
\newlabel{fig:a}{{1(a)}{2}{Subfigure 1(a)}{subfigure.1.1}{}}
\newlabel{sub@fig:a}{{(a)}{2}{Subfigure 1(a)\relax }{subfigure.1.1}{}}
\newlabel{fig:b}{{1(b)}{2}{Subfigure 1(b)}{subfigure.1.2}{}}
\newlabel{sub@fig:b}{{(b)}{2}{Subfigure 1(b)\relax }{subfigure.1.2}{}}
\@writefile{lof}{\contentsline {figure}{\numberline {1}{\ignorespaces Decima\IeC {\c c}\IeC {\~a}o}}{2}{figure.1}}
\@writefile{lof}{\contentsline {subfigure}{\numberline{(a)}{\ignorespaces {Espectro original}}}{2}{figure.1}}
\@writefile{lof}{\contentsline {subfigure}{\numberline{(b)}{\ignorespaces {Decima\IeC {\c c}\IeC {\~a}o M=2}}}{2}{figure.1}}
\newlabel{fig:a}{{2(a)}{2}{Subfigure 2(a)}{subfigure.2.1}{}}
\newlabel{sub@fig:a}{{(a)}{2}{Subfigure 2(a)\relax }{subfigure.2.1}{}}
\newlabel{fig:b}{{2(b)}{2}{Subfigure 2(b)}{subfigure.2.2}{}}
\newlabel{sub@fig:b}{{(b)}{2}{Subfigure 2(b)\relax }{subfigure.2.2}{}}
\@writefile{lof}{\contentsline {figure}{\numberline {2}{\ignorespaces Interpola\IeC {\c c}\IeC {\~a}o}}{2}{figure.2}}
\@writefile{lof}{\contentsline {subfigure}{\numberline{(a)}{\ignorespaces {Espectro original}}}{2}{figure.2}}
\@writefile{lof}{\contentsline {subfigure}{\numberline{(b)}{\ignorespaces {Interpola\IeC {\c c}\IeC {\~a}o L=3}}}{2}{figure.2}}
\newlabel{fig:a}{{3(a)}{3}{Subfigure 3(a)}{subfigure.3.1}{}}
\newlabel{sub@fig:a}{{(a)}{3}{Subfigure 3(a)\relax }{subfigure.3.1}{}}
\newlabel{fig:b}{{3(b)}{3}{Subfigure 3(b)}{subfigure.3.2}{}}
\newlabel{sub@fig:b}{{(b)}{3}{Subfigure 3(b)\relax }{subfigure.3.2}{}}
\@writefile{lof}{\contentsline {figure}{\numberline {3}{\ignorespaces Raz\IeC {\~a}o fracionada}}{3}{figure.3}}
\@writefile{lof}{\contentsline {subfigure}{\numberline{(a)}{\ignorespaces {Espectro original}}}{3}{figure.3}}
\@writefile{lof}{\contentsline {subfigure}{\numberline{(b)}{\ignorespaces {Raz\IeC {\~a}o fracionada L=3 M=2}}}{3}{figure.3}}
\@writefile{lof}{\contentsline {figure}{\numberline {4}{\ignorespaces Conte\IeC {\'u}do espectral do \IeC {\'a}udio original de m\IeC {\'u}sica.}}{4}{figure.4}}
\newlabel{fig:mesh1}{{4}{4}{Conteúdo espectral do áudio original de música}{figure.4}{}}
\@writefile{lof}{\contentsline {figure}{\numberline {5}{\ignorespaces }}{4}{figure.5}}
\newlabel{fig:mesh1}{{5}{4}{}{figure.5}{}}
\newlabel{fig:a}{{6(a)}{5}{Subfigure 6(a)}{subfigure.6.1}{}}
\newlabel{sub@fig:a}{{(a)}{5}{Subfigure 6(a)\relax }{subfigure.6.1}{}}
\newlabel{fig:b}{{6(b)}{5}{Subfigure 6(b)}{subfigure.6.2}{}}
\newlabel{sub@fig:b}{{(b)}{5}{Subfigure 6(b)\relax }{subfigure.6.2}{}}
\@writefile{lof}{\contentsline {figure}{\numberline {6}{\ignorespaces Espectro do filtro e \IeC {\'a}udio filtrado}}{5}{figure.6}}
\@writefile{lof}{\contentsline {subfigure}{\numberline{(a)}{\ignorespaces {Espectro do filtro $\omega =\pi /6$}}}{5}{figure.6}}
\@writefile{lof}{\contentsline {subfigure}{\numberline{(b)}{\ignorespaces {\IeC {\'A}udio filtrado}}}{5}{figure.6}}
\newlabel{fig:h1}{{7(a)}{6}{Subfigure 7(a)}{subfigure.7.1}{}}
\newlabel{sub@fig:h1}{{(a)}{6}{Subfigure 7(a)\relax }{subfigure.7.1}{}}
\newlabel{fig:h2}{{7(b)}{6}{Subfigure 7(b)}{subfigure.7.2}{}}
\newlabel{sub@fig:h2}{{(b)}{6}{Subfigure 7(b)\relax }{subfigure.7.2}{}}
\@writefile{lof}{\contentsline {figure}{\numberline {7}{\ignorespaces Compara\IeC {\c c}\IeC {\~a}o entre espectros.}}{6}{figure.7}}
\@writefile{lof}{\contentsline {subfigure}{\numberline{(a)}{\ignorespaces {Espectro do sinal subamostrado sem pr\IeC {\'e}-filtragem}}}{6}{figure.7}}
\@writefile{lof}{\contentsline {subfigure}{\numberline{(b)}{\ignorespaces {Espectro do sinal subamostrado com pr\IeC {\'e}-filtragem}}}{6}{figure.7}}
\@writefile{lol}{\contentsline {lstlisting}{../main\textunderscore musica.m}{7}{lstlisting.-2}}
