\relax 
\providecommand\hyper@newdestlabel[2]{}
\@nameuse{bbl@beforestart}
\catcode `"\active 
\providecommand\HyperFirstAtBeginDocument{\AtBeginDocument}
\HyperFirstAtBeginDocument{\ifx\hyper@anchor\@undefined
\global\let\oldcontentsline\contentsline
\gdef\contentsline#1#2#3#4{\oldcontentsline{#1}{#2}{#3}}
\global\let\oldnewlabel\newlabel
\gdef\newlabel#1#2{\newlabelxx{#1}#2}
\gdef\newlabelxx#1#2#3#4#5#6{\oldnewlabel{#1}{{#2}{#3}}}
\AtEndDocument{\ifx\hyper@anchor\@undefined
\let\contentsline\oldcontentsline
\let\newlabel\oldnewlabel
\fi}
\fi}
\global\let\hyper@last\relax 
\gdef\HyperFirstAtBeginDocument#1{#1}
\providecommand\HyField@AuxAddToFields[1]{}
\providecommand\HyField@AuxAddToCoFields[2]{}
\babel@aux{portuguese}{}
\@writefile{toc}{\contentsline {section}{\numberline {Questao 1}}{1}{section.1}\protected@file@percent }
\@writefile{toc}{\contentsline {subsection}{\numberline {a)}A máxima potência que a célula pode gerar nessas condições}{1}{subsection.1.1}\protected@file@percent }
\@writefile{toc}{\contentsline {subsection}{\numberline {b)}A máxima potência que se pode obter na carga}{1}{subsection.1.2}\protected@file@percent }
\@writefile{toc}{\contentsline {subsection}{\numberline {c)}Estime os parâmetros $R_S$ e $R_P$}{1}{subsection.1.3}\protected@file@percent }
\@writefile{toc}{\contentsline {subsection}{\numberline {d)}Trace a curva do rendimento (potência na carga/potência gerada) em função de VPV}{1}{subsection.1.4}\protected@file@percent }
\@writefile{lof}{\contentsline {figure}{\numberline {1}{\ignorespaces Esquemático do circuito simulado.}}{1}{figure.1}\protected@file@percent }
\newlabel{fig.1}{{1}{1}{Esquemático do circuito simulado}{figure.1}{}}
\@writefile{lof}{\contentsline {figure}{\numberline {2}{\ignorespaces Resultados da simulação.}}{2}{figure.2}\protected@file@percent }
\newlabel{fig.2}{{2}{2}{Resultados da simulação}{figure.2}{}}
\@writefile{toc}{\contentsline {section}{\numberline {Questao 2}}{2}{section.2}\protected@file@percent }
\@writefile{toc}{\contentsline {subsection}{\numberline {a)}Para operação em regime permanente, indique a polaridade da tensão de saída (Vx), bem como o sentido de circulação das correntes médias pelos indutores. Determine (por inspeção) a tensão média sobre o capacitor C1 e sua polaridade. Justifique.}{2}{subsection.2.1}\protected@file@percent }
\@writefile{lof}{\contentsline {figure}{\numberline {3}{\ignorespaces Sentido médio das correntes e tensões.}}{3}{figure.3}\protected@file@percent }
\newlabel{fig.3}{{3}{3}{Sentido médio das correntes e tensões}{figure.3}{}}
\@writefile{toc}{\contentsline {subsection}{\numberline {b)}Para operação no modo de condução contínua, determine a relação entre Vx e Vi, em função da largura de pulso do sinal de comando do transistor. Indique as eventuais hipóteses adicionais que fizer, justificando-as.}{3}{subsection.2.2}\protected@file@percent }
\@writefile{toc}{\contentsline {subsection}{\numberline {c)}Suponha os seguintes valores para as grandezas: $Ii=5$ A (valor médio da corrente de entrada), $Vi=100$ V, $\delta =0,4$ (largura de pulso), $f=50$ kHz, $L1=L2=1$ mH. Verifique se o circuito opera no MCC ou no MCD (analise este caso de modo análogo ao que é feito para o conversor Cuk).}{3}{subsection.2.3}\protected@file@percent }
\@writefile{toc}{\contentsline {subsection}{\numberline {d)}Para estes parâmetros, determine os valores das tensões que o transistor e o diodo devem suportar. Determine os valores médios das correntes pelos indutores, pelo transistor e pelo diodo. Despreze as ondulações nas tensões nos capacitores.}{4}{subsection.2.4}\protected@file@percent }
\@writefile{toc}{\contentsline {subsection}{\numberline {e)}Calcule os capacitores para uma ondulação de 2,5\% (pico-a-pico) em torno da tensão média. Usando como condição inicial os valores médios de tensão nos capacitores e corrente nos indutores, simule o circuito (Pspice, PSIM, Simulink...) até o conversor entrar em regime permanente. Uma vez em regime permanente, apresente as formas de onda das correntes pelos indutores, das tensões nos capacitores e da tensão e corrente pelo transistor, durante 5 ciclos. Verifique se os valores esperados teoricamente são obtidos. Comente eventuais diferenças.}{4}{subsection.2.5}\protected@file@percent }
\@writefile{lof}{\contentsline {figure}{\numberline {4}{\ignorespaces Circuito utilizado na simulação.}}{5}{figure.4}\protected@file@percent }
\newlabel{fig.4}{{4}{5}{Circuito utilizado na simulação}{figure.4}{}}
\@writefile{lof}{\contentsline {figure}{\numberline {5}{\ignorespaces Resultados das simulações.}}{5}{figure.5}\protected@file@percent }
\newlabel{fig.5}{{5}{5}{Resultados das simulações}{figure.5}{}}
