\relax 
\providecommand\hyper@newdestlabel[2]{}
\@nameuse{bbl@beforestart}
\catcode `"\active 
\providecommand\HyperFirstAtBeginDocument{\AtBeginDocument}
\HyperFirstAtBeginDocument{\ifx\hyper@anchor\@undefined
\global\let\oldcontentsline\contentsline
\gdef\contentsline#1#2#3#4{\oldcontentsline{#1}{#2}{#3}}
\global\let\oldnewlabel\newlabel
\gdef\newlabel#1#2{\newlabelxx{#1}#2}
\gdef\newlabelxx#1#2#3#4#5#6{\oldnewlabel{#1}{{#2}{#3}}}
\AtEndDocument{\ifx\hyper@anchor\@undefined
\let\contentsline\oldcontentsline
\let\newlabel\oldnewlabel
\fi}
\fi}
\global\let\hyper@last\relax 
\gdef\HyperFirstAtBeginDocument#1{#1}
\providecommand\HyField@AuxAddToFields[1]{}
\providecommand\HyField@AuxAddToCoFields[2]{}
\babel@aux{portuguese}{}
\newlabel{eq:primeira_ressonancia}{{1}{1}{}{equation.0.1}{}}
\newlabel{eq:segunda_ressonancia}{{2}{1}{}{equation.0.2}{}}
\@writefile{lof}{\contentsline {figure}{\numberline {1}{\ignorespaces Esquemático utilizado na modelagem do trafo.}}{2}{figure.1}\protected@file@percent }
\newlabel{fig.esquematico.trafo}{{1}{2}{Esquemático utilizado na modelagem do trafo}{figure.1}{}}
\@writefile{lof}{\contentsline {figure}{\numberline {2}{\ignorespaces Fase (cor azul) e módulo (cor verde) da impedância do circuito em função da frequência.}}{2}{figure.2}\protected@file@percent }
\newlabel{fig.bode.modelo}{{2}{2}{Fase (cor azul) e módulo (cor verde) da impedância do circuito em função da frequência}{figure.2}{}}
\@writefile{lof}{\contentsline {figure}{\numberline {3}{\ignorespaces Fase (cor azul) e ganho de tensão (cor verde) do circuito em função da frequência.}}{3}{figure.3}\protected@file@percent }
\newlabel{fig.ganho.tensao}{{3}{3}{Fase (cor azul) e ganho de tensão (cor verde) do circuito em função da frequência}{figure.3}{}}
\@writefile{lof}{\contentsline {figure}{\numberline {4}{\ignorespaces Fase (cor azul) e módulo (cor verde) da impedância do circuito com carga de 30 k$\Omega $ em função da frequência.}}{3}{figure.4}\protected@file@percent }
\newlabel{fig.bode.30k}{{4}{3}{Fase (cor azul) e módulo (cor verde) da impedância do circuito com carga de 30 k$\Omega $ em função da frequência}{figure.4}{}}
\@writefile{lof}{\contentsline {figure}{\numberline {5}{\ignorespaces Fase (cor azul) e ganho de tensão (cor verde) do circuito com carga de 30 k$\Omega $ em função da frequência.}}{4}{figure.5}\protected@file@percent }
\newlabel{fig.ganho.tensao.30k}{{5}{4}{Fase (cor azul) e ganho de tensão (cor verde) do circuito com carga de 30 k$\Omega $ em função da frequência}{figure.5}{}}
\@writefile{lof}{\contentsline {figure}{\numberline {6}{\ignorespaces Corrente vista no indutor do primário (cor verde) e tensão vista sobre a carga de 30 k$\Omega $ (cor amarela), para onda senoidal de 10 kHz.}}{4}{figure.6}\protected@file@percent }
\newlabel{fig.4a}{{6}{4}{Corrente vista no indutor do primário (cor verde) e tensão vista sobre a carga de 30 k$\Omega $ (cor amarela), para onda senoidal de 10 kHz}{figure.6}{}}
\@writefile{lof}{\contentsline {figure}{\numberline {7}{\ignorespaces Corrente vista no indutor do primário (cor verde) e tensão vista sobre a carga de 30 k$\Omega $ (cor amarela), para onda senoidal de 100 kHz.}}{5}{figure.7}\protected@file@percent }
\newlabel{fig.4b}{{7}{5}{Corrente vista no indutor do primário (cor verde) e tensão vista sobre a carga de 30 k$\Omega $ (cor amarela), para onda senoidal de 100 kHz}{figure.7}{}}
\@writefile{lof}{\contentsline {figure}{\numberline {8}{\ignorespaces Corrente vista no indutor do primário (cor verde) e tensão vista sobre a carga de 30 k$\Omega $ (cor amarela), para onda senoidal de 360 kHz.}}{5}{figure.8}\protected@file@percent }
\newlabel{fig.4c}{{8}{5}{Corrente vista no indutor do primário (cor verde) e tensão vista sobre a carga de 30 k$\Omega $ (cor amarela), para onda senoidal de 360 kHz}{figure.8}{}}
\@writefile{lof}{\contentsline {figure}{\numberline {9}{\ignorespaces Corrente vista no indutor do primário (cor verde) e tensão vista sobre a carga de 30 k$\Omega $ (cor amarela), para onda quadrada de 10 kHz.}}{6}{figure.9}\protected@file@percent }
\newlabel{fig.4d}{{9}{6}{Corrente vista no indutor do primário (cor verde) e tensão vista sobre a carga de 30 k$\Omega $ (cor amarela), para onda quadrada de 10 kHz}{figure.9}{}}
\@writefile{lof}{\contentsline {figure}{\numberline {10}{\ignorespaces Esquemático elaborado para o conversor abaixador.}}{6}{figure.10}\protected@file@percent }
\newlabel{fig.5.esquematico}{{10}{6}{Esquemático elaborado para o conversor abaixador}{figure.10}{}}
\@writefile{lof}{\contentsline {figure}{\numberline {11}{\ignorespaces Tensão vista sobre a carga, com capacitância ideal.}}{7}{figure.11}\protected@file@percent }
\newlabel{fig.5.a}{{11}{7}{Tensão vista sobre a carga, com capacitância ideal}{figure.11}{}}
\@writefile{lof}{\contentsline {figure}{\numberline {12}{\ignorespaces Tensão vista sobre a carga, com capacitância e acréscimo de resistência em série.}}{7}{figure.12}\protected@file@percent }
\newlabel{fig.5.b}{{12}{7}{Tensão vista sobre a carga, com capacitância e acréscimo de resistência em série}{figure.12}{}}
\@writefile{lof}{\contentsline {figure}{\numberline {13}{\ignorespaces Tensão vista sobre a carga, com capacitância, acréscimo de resistência e indutância em série.}}{7}{figure.13}\protected@file@percent }
\newlabel{fig.5.c}{{13}{7}{Tensão vista sobre a carga, com capacitância, acréscimo de resistência e indutância em série}{figure.13}{}}
