\relax 
\providecommand\hyper@newdestlabel[2]{}
\catcode `"\active 
\providecommand\HyperFirstAtBeginDocument{\AtBeginDocument}
\HyperFirstAtBeginDocument{\ifx\hyper@anchor\@undefined
\global\let\oldcontentsline\contentsline
\gdef\contentsline#1#2#3#4{\oldcontentsline{#1}{#2}{#3}}
\global\let\oldnewlabel\newlabel
\gdef\newlabel#1#2{\newlabelxx{#1}#2}
\gdef\newlabelxx#1#2#3#4#5#6{\oldnewlabel{#1}{{#2}{#3}}}
\AtEndDocument{\ifx\hyper@anchor\@undefined
\let\contentsline\oldcontentsline
\let\newlabel\oldnewlabel
\fi}
\fi}
\global\let\hyper@last\relax 
\gdef\HyperFirstAtBeginDocument#1{#1}
\providecommand\HyField@AuxAddToFields[1]{}
\providecommand\HyField@AuxAddToCoFields[2]{}
\babel@aux{portuguese}{}
\@writefile{lof}{\contentsline {figure}{\numberline {1}{\ignorespaces Sinais de entrada utilizados para demonstra\IeC {\c c}\IeC {\~a}o do algoritmo.}}{1}{figure.1}}
\newlabel{fig:1}{{1}{1}{Sinais de entrada utilizados para demonstração do algoritmo}{figure.1}{}}
\@writefile{lof}{\contentsline {figure}{\numberline {2}{\ignorespaces Convolu\IeC {\c c}\IeC {\~a}o linear $y[n] = x[n]*h[n]$.}}{2}{figure.2}}
\newlabel{fig:2}{{2}{2}{Convolução linear $y[n] = x[n]*h[n]$}{figure.2}{}}
\@writefile{lof}{\contentsline {figure}{\numberline {3}{\ignorespaces Convolu\IeC {\c c}\IeC {\~a}o circular com N = 8.}}{3}{figure.3}}
\newlabel{fig:3}{{3}{3}{Convolução circular com N = 8}{figure.3}{}}
\@writefile{lof}{\contentsline {figure}{\numberline {4}{\ignorespaces Convolu\IeC {\c c}\IeC {\~a}o circular com N = 16.}}{4}{figure.4}}
\newlabel{fig:4}{{4}{4}{Convolução circular com N = 16}{figure.4}{}}
\@writefile{lof}{\contentsline {figure}{\numberline {5}{\ignorespaces Convolu\IeC {\c c}\IeC {\~a}o circular com N = 32.}}{4}{figure.5}}
\newlabel{fig:5}{{5}{4}{Convolução circular com N = 32}{figure.5}{}}
\@writefile{lof}{\contentsline {figure}{\numberline {6}{\ignorespaces Amostras de $x_i[n]$.}}{5}{figure.6}}
\newlabel{fig:6}{{6}{5}{Amostras de $x_i[n]$}{figure.6}{}}
\@writefile{lof}{\contentsline {figure}{\numberline {7}{\ignorespaces Convolu\IeC {\c c}\IeC {\~a}o de $x_i[n]$ e $h_i[n]$, deslocado no tempo para facilitar a visualiza\IeC {\c c}\IeC {\~a}o.}}{6}{figure.7}}
\newlabel{fig:7}{{7}{6}{Convolução de $x_i[n]$ e $h_i[n]$, deslocado no tempo para facilitar a visualização}{figure.7}{}}
\@writefile{lof}{\contentsline {figure}{\numberline {8}{\ignorespaces Resultado final atrav\IeC {\'e}s de \textit  {Overlap Add}.}}{6}{figure.8}}
\newlabel{fig:8}{{8}{6}{Resultado final através de \textit {Overlap Add}}{figure.8}{}}
\@writefile{lof}{\contentsline {figure}{\numberline {9}{\ignorespaces Amostras de $x_i[n]$.}}{7}{figure.9}}
\newlabel{fig:9}{{9}{7}{Amostras de $x_i[n]$}{figure.9}{}}
\@writefile{lof}{\contentsline {figure}{\numberline {10}{\ignorespaces Convolu\IeC {\c c}\IeC {\~a}o circular $x_i[n]$ e $h_i[n]$, deslocado no tempo para facilitar a visualiza\IeC {\c c}\IeC {\~a}o.}}{8}{figure.10}}
\newlabel{fig:10}{{10}{8}{Convolução circular $x_i[n]$ e $h_i[n]$, deslocado no tempo para facilitar a visualização}{figure.10}{}}
\@writefile{lof}{\contentsline {figure}{\numberline {11}{\ignorespaces Resultado final atrav\IeC {\'e}s de \textit  {Overlap Save}.}}{8}{figure.11}}
\newlabel{fig:11}{{11}{8}{Resultado final através de \textit {Overlap Save}}{figure.11}{}}
