\relax 
\providecommand\hyper@newdestlabel[2]{}
\@nameuse{bbl@beforestart}
\catcode `"\active 
\providecommand\HyperFirstAtBeginDocument{\AtBeginDocument}
\HyperFirstAtBeginDocument{\ifx\hyper@anchor\@undefined
\global\let\oldcontentsline\contentsline
\gdef\contentsline#1#2#3#4{\oldcontentsline{#1}{#2}{#3}}
\global\let\oldnewlabel\newlabel
\gdef\newlabel#1#2{\newlabelxx{#1}#2}
\gdef\newlabelxx#1#2#3#4#5#6{\oldnewlabel{#1}{{#2}{#3}}}
\AtEndDocument{\ifx\hyper@anchor\@undefined
\let\contentsline\oldcontentsline
\let\newlabel\oldnewlabel
\fi}
\fi}
\global\let\hyper@last\relax 
\gdef\HyperFirstAtBeginDocument#1{#1}
\providecommand\HyField@AuxAddToFields[1]{}
\providecommand\HyField@AuxAddToCoFields[2]{}
\babel@aux{portuguese}{}
\@writefile{toc}{\contentsline {section}{\numberline {Questao 1}}{1}{section.1}\protected@file@percent }
\@writefile{toc}{\contentsline {subsection}{\numberline {a)}Determine a potência máxima que é possível transmitir por essa LT. Qual o ângulo de abertura entre as barras S e R para uma potência transmitida de 100 MW?}{1}{subsection.1.1}\protected@file@percent }
\@writefile{toc}{\contentsline {subsection}{\numberline {b)}Calcule a tensão na barra M e a corrente pela LT (módulo e fase). Desenhe o diagrama fasorial tomando como referência angular (fase $0^\circ $) a corrente.}{1}{subsection.1.2}\protected@file@percent }
\@writefile{lof}{\contentsline {figure}{\numberline {1}{\ignorespaces Diagrama fasorial.}}{2}{figure.1}\protected@file@percent }
\newlabel{fig.diagrama.1}{{1}{2}{Diagrama fasorial}{figure.1}{}}
\@writefile{toc}{\contentsline {subsection}{\numberline {c)}Fazendo uma compensação shunt na barra M que leve tal tensão a 100 kV, determine a nova abertura angular entre as barras S, M e R para transmitir 100 MW. Determine as correntes nas fontes e no ramo de compensação (módulo e fase). Faça os diagramas fasoriais tomando como referência (fase $0^\circ $) a tensão VM.}{2}{subsection.1.3}\protected@file@percent }
\@writefile{lof}{\contentsline {figure}{\numberline {2}{\ignorespaces Diagrama fasorial com compensador.}}{3}{figure.2}\protected@file@percent }
\newlabel{fig.diagrama.2}{{2}{3}{Diagrama fasorial com compensador}{figure.2}{}}
\@writefile{toc}{\contentsline {subsection}{\numberline {d)}Determine a corrente no ramo de compensação e a potência reativa injetada na barra M. Qual a capacitância necessária para tal injeção (60 Hz)?}{3}{subsection.1.4}\protected@file@percent }
\@writefile{toc}{\contentsline {subsection}{\numberline {e)}Simule (em Pspice, Matlab/Simulink, PSIM ou outro programa adequado) esta linha de transmissão (LT) nas condições analisadas nos itens anteriores. Para a simulação, adicione uma resistência de 1 m$\Omega $ a cada reatância. No ramo de compensação, coloque uma resistência de 1 $\Omega $ em série com o capacitor, de modo a amortecer uma oscilação entre indutâncias e capacitâncias. Simule pelo tempo necessário ao desaparecimento dos efeitos da ressonância (circuito com compensação capacitiva) e verifique os valores em comparação com a análise teórica. Comente eventuais diferenças.}{3}{subsection.1.5}\protected@file@percent }
\@writefile{lof}{\contentsline {figure}{\numberline {3}{\ignorespaces Circuito simulado para linha de transmissão e compensador.}}{4}{figure.3}\protected@file@percent }
\newlabel{fig.sim.circuit}{{3}{4}{Circuito simulado para linha de transmissão e compensador}{figure.3}{}}
\@writefile{lof}{\contentsline {figure}{\numberline {4}{\ignorespaces Resultados da simulação.}}{4}{figure.4}\protected@file@percent }
\newlabel{fig.sim.results}{{4}{4}{Resultados da simulação}{figure.4}{}}
\@writefile{toc}{\contentsline {section}{\numberline {Questao 2}}{5}{section.2}\protected@file@percent }
\@writefile{lof}{\contentsline {figure}{\numberline {5}{\ignorespaces Circuito utilizado na simulação.}}{5}{figure.5}\protected@file@percent }
\newlabel{fig.2.circuit}{{5}{5}{Circuito utilizado na simulação}{figure.5}{}}
\@writefile{toc}{\contentsline {subsection}{\numberline {a)}Obtenha e comente as formas de onda Vout e Vfilt.}{5}{subsection.2.1}\protected@file@percent }
\@writefile{lof}{\contentsline {figure}{\numberline {6}{\ignorespaces Resultado da simulação. Em Roxo a tensão Vout e em verde a tensão Vfilt.}}{5}{figure.6}\protected@file@percent }
\newlabel{fig.2.a}{{6}{5}{Resultado da simulação. Em Roxo a tensão Vout e em verde a tensão Vfilt}{figure.6}{}}
\@writefile{toc}{\contentsline {subsection}{\numberline {b)}Verifique e comente os espectros desses sinais (use a função FFT do Probe do PSpice, entre 0 e 10 kHz).}{6}{subsection.2.2}\protected@file@percent }
\@writefile{lof}{\contentsline {figure}{\numberline {7}{\ignorespaces Resultado da simulação. Em Roxo o espectro da tensão Vout e em verde da tensão Vfilt.}}{6}{figure.7}\protected@file@percent }
\newlabel{fig.2.b}{{7}{6}{Resultado da simulação. Em Roxo o espectro da tensão Vout e em verde da tensão Vfilt}{figure.7}{}}
\@writefile{toc}{\contentsline {subsection}{\numberline {c)}Altere os limites da tensão do módulo superior para +/- 80 V e repita as análises anteriores (Vout e Vfilt no tempo e respectivos espectros). Isso simula um desequilíbrio nas tensões CC dos módulos de um conversor multinível em cascata simétrica. Comente.}{7}{subsection.2.3}\protected@file@percent }
\@writefile{lof}{\contentsline {figure}{\numberline {8}{\ignorespaces Resultado da simulação. Em Roxo a tensão Vout e em verde a tensão Vfilt.}}{7}{figure.8}\protected@file@percent }
\newlabel{fig.2.c.tempo}{{8}{7}{Resultado da simulação. Em Roxo a tensão Vout e em verde a tensão Vfilt}{figure.8}{}}
\@writefile{lof}{\contentsline {figure}{\numberline {9}{\ignorespaces Resultado da simulação. Em Roxo o espectro da tensão Vout e em verde da tensão Vfilt.}}{7}{figure.9}\protected@file@percent }
\newlabel{fig.2.c.espectro}{{9}{7}{Resultado da simulação. Em Roxo o espectro da tensão Vout e em verde da tensão Vfilt}{figure.9}{}}
\@writefile{toc}{\contentsline {subsection}{\numberline {d)}Altere os limites da tensão do módulo superior para +/- 0 V e repita as análises anteriores (Vout e Vfilt no tempo e respectivos espectros). Isso simula uma falha em um dos módulos do conversor multinível. Comente.}{8}{subsection.2.4}\protected@file@percent }
\@writefile{lof}{\contentsline {figure}{\numberline {10}{\ignorespaces Resultado da simulação. Em Roxo a tensão Vout e em verde a tensão Vfilt.}}{8}{figure.10}\protected@file@percent }
\newlabel{fig.2.d.tempo}{{10}{8}{Resultado da simulação. Em Roxo a tensão Vout e em verde a tensão Vfilt}{figure.10}{}}
\@writefile{lof}{\contentsline {figure}{\numberline {11}{\ignorespaces Resultado da simulação. Em Roxo o espectro da tensão Vout e em verde da tensão Vfilt.}}{8}{figure.11}\protected@file@percent }
\newlabel{fig.2.d.espectro}{{11}{8}{Resultado da simulação. Em Roxo o espectro da tensão Vout e em verde da tensão Vfilt}{figure.11}{}}
\@writefile{toc}{\contentsline {subsection}{\numberline {e)}Supondo que a falha simulada no item anterior seja detectada, e que o módulo defeituoso seja retirado do circuito (por exemplo, por uma chave de by-pass), altere os ajustes da modulante e das portadoras dos módulos restantes de modo a continuar obtendo a tensão de saída desejada e o melhor espectro possível. Indique os ajustes necessários e comente.}{9}{subsection.2.5}\protected@file@percent }
\@writefile{lof}{\contentsline {figure}{\numberline {12}{\ignorespaces Resultado da simulação. Em Roxo a tensão Vout e em verde a tensão Vfilt.}}{9}{figure.12}\protected@file@percent }
\newlabel{fig.2.e.tempo}{{12}{9}{Resultado da simulação. Em Roxo a tensão Vout e em verde a tensão Vfilt}{figure.12}{}}
\@writefile{lof}{\contentsline {figure}{\numberline {13}{\ignorespaces Resultado da simulação. Em Roxo o espectro da tensão Vout e em verde da tensão Vfilt.}}{9}{figure.13}\protected@file@percent }
\newlabel{fig.2.e.espectro}{{13}{9}{Resultado da simulação. Em Roxo o espectro da tensão Vout e em verde da tensão Vfilt}{figure.13}{}}
