\relax 
\providecommand\hyper@newdestlabel[2]{}
\@nameuse{bbl@beforestart}
\catcode `"\active 
\providecommand\HyperFirstAtBeginDocument{\AtBeginDocument}
\HyperFirstAtBeginDocument{\ifx\hyper@anchor\@undefined
\global\let\oldcontentsline\contentsline
\gdef\contentsline#1#2#3#4{\oldcontentsline{#1}{#2}{#3}}
\global\let\oldnewlabel\newlabel
\gdef\newlabel#1#2{\newlabelxx{#1}#2}
\gdef\newlabelxx#1#2#3#4#5#6{\oldnewlabel{#1}{{#2}{#3}}}
\AtEndDocument{\ifx\hyper@anchor\@undefined
\let\contentsline\oldcontentsline
\let\newlabel\oldnewlabel
\fi}
\fi}
\global\let\hyper@last\relax 
\gdef\HyperFirstAtBeginDocument#1{#1}
\providecommand\HyField@AuxAddToFields[1]{}
\providecommand\HyField@AuxAddToCoFields[2]{}
\babel@aux{portuguese}{}
\@writefile{lof}{\contentsline {figure}{\numberline {1}{\ignorespaces Esquemático elaborado para simulação do circuito proposto.}}{3}{figure.1}\protected@file@percent }
\newlabel{fig.esq}{{1}{3}{Esquemático elaborado para simulação do circuito proposto}{figure.1}{}}
\@writefile{lof}{\contentsline {figure}{\numberline {2}{\ignorespaces Tensões e correntes vistas no esquemático.}}{3}{figure.2}\protected@file@percent }
\newlabel{fig.3.a}{{2}{3}{Tensões e correntes vistas no esquemático}{figure.2}{}}
\@writefile{lof}{\contentsline {figure}{\numberline {3}{\ignorespaces Tensões e correntes vistas no esquemático.}}{5}{figure.3}\protected@file@percent }
\newlabel{fig.3.d}{{3}{5}{Tensões e correntes vistas no esquemático}{figure.3}{}}
\@writefile{lof}{\contentsline {figure}{\numberline {4}{\ignorespaces Esquemático elaborado para simulação do circuito proposto.}}{5}{figure.4}\protected@file@percent }
\newlabel{fig.esq.4}{{4}{5}{Esquemático elaborado para simulação do circuito proposto}{figure.4}{}}
\@writefile{lof}{\contentsline {figure}{\numberline {5}{\ignorespaces Tensões e correntes vistas no esquemático.}}{6}{figure.5}\protected@file@percent }
\newlabel{fig.4.a}{{5}{6}{Tensões e correntes vistas no esquemático}{figure.5}{}}
