\relax 
\providecommand\hyper@newdestlabel[2]{}
\catcode `"\active 
\providecommand\HyperFirstAtBeginDocument{\AtBeginDocument}
\HyperFirstAtBeginDocument{\ifx\hyper@anchor\@undefined
\global\let\oldcontentsline\contentsline
\gdef\contentsline#1#2#3#4{\oldcontentsline{#1}{#2}{#3}}
\global\let\oldnewlabel\newlabel
\gdef\newlabel#1#2{\newlabelxx{#1}#2}
\gdef\newlabelxx#1#2#3#4#5#6{\oldnewlabel{#1}{{#2}{#3}}}
\AtEndDocument{\ifx\hyper@anchor\@undefined
\let\contentsline\oldcontentsline
\let\newlabel\oldnewlabel
\fi}
\fi}
\global\let\hyper@last\relax 
\gdef\HyperFirstAtBeginDocument#1{#1}
\providecommand\HyField@AuxAddToFields[1]{}
\providecommand\HyField@AuxAddToCoFields[2]{}
\babel@aux{portuguese}{}
\@writefile{lof}{\contentsline {figure}{\numberline {1}{\ignorespaces Resposta ao impulso do filtro de decimacao.}}{1}{figure.1}}
\newlabel{fig:1}{{1}{1}{Resposta ao impulso do filtro de decimacao}{figure.1}{}}
\@writefile{lof}{\contentsline {figure}{\numberline {2}{\ignorespaces Resposta ao impulso do filtro de interpolacao.}}{1}{figure.2}}
\newlabel{fig:2}{{2}{1}{Resposta ao impulso do filtro de interpolacao}{figure.2}{}}
\@writefile{lof}{\contentsline {figure}{\numberline {3}{\ignorespaces k-en\IeC {\'e}simos filtros de decima\IeC {\c c}\IeC {\~a}o $e_k[n]$.}}{2}{figure.3}}
\newlabel{fig:3}{{3}{2}{k-enésimos filtros de decimação $e_k[n]$}{figure.3}{}}
\@writefile{lof}{\contentsline {figure}{\numberline {4}{\ignorespaces k-en\IeC {\'e}simos filtros de interpola\IeC {\c c}\IeC {\~a}o $e_k[n]$.}}{2}{figure.4}}
\newlabel{fig:4}{{4}{2}{k-enésimos filtros de interpolação $e_k[n]$}{figure.4}{}}
\@writefile{lof}{\contentsline {figure}{\numberline {5}{\ignorespaces Comparativo entre m\IeC {\'e}todo polif\IeC {\'a}sico e cl\IeC {\'a}ssico de decima\IeC {\c c}\IeC {\~a}o.}}{3}{figure.5}}
\newlabel{fig:5}{{5}{3}{Comparativo entre método polifásico e clássico de decimação}{figure.5}{}}
\@writefile{lof}{\contentsline {figure}{\numberline {6}{\ignorespaces Comparativo entre m\IeC {\'e}todo polif\IeC {\'a}sico e cl\IeC {\'a}ssico de interpola\IeC {\c c}\IeC {\~a}o.}}{3}{figure.6}}
\newlabel{fig:6}{{6}{3}{Comparativo entre método polifásico e clássico de interpolação}{figure.6}{}}
