\relax 
\providecommand\hyper@newdestlabel[2]{}
\@nameuse{bbl@beforestart}
\catcode `"\active 
\providecommand\HyperFirstAtBeginDocument{\AtBeginDocument}
\HyperFirstAtBeginDocument{\ifx\hyper@anchor\@undefined
\global\let\oldcontentsline\contentsline
\gdef\contentsline#1#2#3#4{\oldcontentsline{#1}{#2}{#3}}
\global\let\oldnewlabel\newlabel
\gdef\newlabel#1#2{\newlabelxx{#1}#2}
\gdef\newlabelxx#1#2#3#4#5#6{\oldnewlabel{#1}{{#2}{#3}}}
\AtEndDocument{\ifx\hyper@anchor\@undefined
\let\contentsline\oldcontentsline
\let\newlabel\oldnewlabel
\fi}
\fi}
\global\let\hyper@last\relax 
\gdef\HyperFirstAtBeginDocument#1{#1}
\providecommand\HyField@AuxAddToFields[1]{}
\providecommand\HyField@AuxAddToCoFields[2]{}
\babel@aux{portuguese}{}
\@writefile{toc}{\contentsline {section}{\numberline {Questao 1}}{1}{section.1}\protected@file@percent }
\@writefile{toc}{\contentsline {subsection}{\numberline {a)} Qual a máxima potência ativa que esse circuito pode injetar na rede, mantida a forma de onda senoidal da corrente e fator de potência unitário? Determine a diferença angular entre a tensão da rede (VAC e a componente fundamental da tensão produzida pelo inversor (Vinv).}{1}{subsection.1.1}\protected@file@percent }
\@writefile{lof}{\contentsline {figure}{\numberline {1}{\ignorespaces Esquemático equivalente para o circuito do inversor conectado à rede.}}{1}{figure.1}\protected@file@percent }
\newlabel{fig.inversor}{{1}{1}{Esquemático equivalente para o circuito do inversor conectado à rede}{figure.1}{}}
\@writefile{lof}{\contentsline {figure}{\numberline {2}{\ignorespaces Diagrama fasorial.}}{2}{figure.2}\protected@file@percent }
\newlabel{fig.diagrama.1}{{2}{2}{Diagrama fasorial}{figure.2}{}}
\@writefile{toc}{\contentsline {subsection}{\numberline {b)}Simule o circuito, nas condições calculadas no item anterior, usando um PWM de dois níveis e verifique se os resultados são consistentes com a expectativa. A simulação pode ser feita em qualquer simulador. Ajuste as condições iniciais (principalmente a fase das tensões) para minimizar o transitório inicial e atingir rapidamente a condição de regime permanente. Por simplicidade de simulação, o transistor pode ser substituído por uma chave ideal (Sbreak no caso do PSpice, com resistência de condução reduzida – ajuste RON=1m$\Omega $).}{2}{subsection.1.2}\protected@file@percent }
\@writefile{lof}{\contentsline {figure}{\numberline {3}{\ignorespaces Esquemático do circuito simulado.}}{3}{figure.3}\protected@file@percent }
\newlabel{fig.sim.circuit}{{3}{3}{Esquemático do circuito simulado}{figure.3}{}}
\@writefile{lof}{\contentsline {figure}{\numberline {4}{\ignorespaces Esquemático do circuito simulado.}}{3}{figure.4}\protected@file@percent }
\newlabel{fig.sim.result}{{4}{3}{Esquemático do circuito simulado}{figure.4}{}}
\@writefile{toc}{\contentsline {subsection}{\numberline {c)}Para o circuito operando em regime permanente, obtenha e comente as seguintes formas de onda: (1) Tensão produzida pelo inversor; (2) Corrente injetada na rede; (3) Espectro (FFT dos sinais acima). Analise entre 0 e 10 kHz. Comente.}{3}{subsection.1.3}\protected@file@percent }
\@writefile{lof}{\contentsline {figure}{\numberline {5}{\ignorespaces Tensão na saída do inversor e corrente injetada na rede.}}{4}{figure.5}\protected@file@percent }
\newlabel{fig.sim.c}{{5}{4}{Tensão na saída do inversor e corrente injetada na rede}{figure.5}{}}
\@writefile{lof}{\contentsline {figure}{\numberline {6}{\ignorespaces FFT da tensão do inversor e da corrente injetada na rede.}}{4}{figure.6}\protected@file@percent }
\newlabel{fig.sim.c.fft}{{6}{4}{FFT da tensão do inversor e da corrente injetada na rede}{figure.6}{}}
\@writefile{toc}{\contentsline {section}{\numberline {Questao 2}}{5}{section.2}\protected@file@percent }
\@writefile{toc}{\contentsline {subsection}{\numberline {a)}Qual a máxima potência (suposta constante ao longo do ano) que o sistema pode alimentar?}{5}{subsection.2.1}\protected@file@percent }
\@writefile{toc}{\contentsline {subsection}{\numberline {b)}Se tal aumento de demanda for suprido apenas por geração eólica a ser instalada, a qual está sujeita ao regime de ventos mostrado na figura, qual deve ser mínima potência do aerogerador para permitir, em conjunto com o sistema FV+baterias, suprir a carga ampliada?}{5}{subsection.2.2}\protected@file@percent }
