\relax 
\providecommand\hyper@newdestlabel[2]{}
\catcode `"\active 
\providecommand\HyperFirstAtBeginDocument{\AtBeginDocument}
\HyperFirstAtBeginDocument{\ifx\hyper@anchor\@undefined
\global\let\oldcontentsline\contentsline
\gdef\contentsline#1#2#3#4{\oldcontentsline{#1}{#2}{#3}}
\global\let\oldnewlabel\newlabel
\gdef\newlabel#1#2{\newlabelxx{#1}#2}
\gdef\newlabelxx#1#2#3#4#5#6{\oldnewlabel{#1}{{#2}{#3}}}
\AtEndDocument{\ifx\hyper@anchor\@undefined
\let\contentsline\oldcontentsline
\let\newlabel\oldnewlabel
\fi}
\fi}
\global\let\hyper@last\relax 
\gdef\HyperFirstAtBeginDocument#1{#1}
\providecommand\HyField@AuxAddToFields[1]{}
\providecommand\HyField@AuxAddToCoFields[2]{}
\babel@aux{portuguese}{}
\citation{10.5555/1795494}
\citation{10.5555/1795494}
\@writefile{lof}{\contentsline {figure}{\numberline {1}{\ignorespaces Formas de onda da entrada e sa\IeC {\'\i }da do sistema, para as frequ\IeC {\^e}ncias $\omega _1 = \pi /5$ e $\omega _2 = \pi /10$.}}{3}{figure.1}}
\newlabel{fig:ondas}{{1}{3}{Formas de onda da entrada e saída do sistema, para as frequências $\omega _1 = \pi /5$ e $\omega _2 = \pi /10$}{figure.1}{}}
\@writefile{lof}{\contentsline {figure}{\numberline {2}{\ignorespaces Magnitude da resposta em frequ\IeC {\^e}ncia do sistema desconhecido.}}{3}{figure.2}}
\newlabel{fig:magnitude}{{2}{3}{Magnitude da resposta em frequência do sistema desconhecido}{figure.2}{}}
\@writefile{lol}{\contentsline {lstlisting}{../resposta.m}{4}{lstlisting.-1}}
\bibdata{bibli}
\bibcite{10.5555/1795494}{1}
\bibstyle{ieeetr}
