\relax 
\providecommand\hyper@newdestlabel[2]{}
\@nameuse{bbl@beforestart}
\catcode `"\active 
\providecommand\HyperFirstAtBeginDocument{\AtBeginDocument}
\HyperFirstAtBeginDocument{\ifx\hyper@anchor\@undefined
\global\let\oldcontentsline\contentsline
\gdef\contentsline#1#2#3#4{\oldcontentsline{#1}{#2}{#3}}
\global\let\oldnewlabel\newlabel
\gdef\newlabel#1#2{\newlabelxx{#1}#2}
\gdef\newlabelxx#1#2#3#4#5#6{\oldnewlabel{#1}{{#2}{#3}}}
\AtEndDocument{\ifx\hyper@anchor\@undefined
\let\contentsline\oldcontentsline
\let\newlabel\oldnewlabel
\fi}
\fi}
\global\let\hyper@last\relax 
\gdef\HyperFirstAtBeginDocument#1{#1}
\providecommand\HyField@AuxAddToFields[1]{}
\providecommand\HyField@AuxAddToCoFields[2]{}
\babel@aux{portuguese}{}
\@writefile{toc}{\contentsline {section}{\numberline {Questao 1}}{1}{section.1}\protected@file@percent }
\@writefile{toc}{\contentsline {subsection}{\numberline {a)}Utilizando a teoria de Fryze, obtenha equações para descrever as componentes Ia(t) e Ina(t). Escreva uma equação para cada intervalo de tempo, já que não existe uma função contínua para tal.}{1}{subsection.1.1}\protected@file@percent }
\@writefile{toc}{\contentsline {subsection}{\numberline {b)}Desenhe estas formas de onda para $\delta =0,125$ e $\delta =0,250$. Comente.}{1}{subsection.1.2}\protected@file@percent }
\@writefile{toc}{\contentsline {subsection}{\numberline {c)}Determine o fator de potência em cada caso.}{3}{subsection.1.3}\protected@file@percent }
\@writefile{toc}{\contentsline {section}{\numberline {Questao 2}}{3}{section.2}\protected@file@percent }
\@writefile{toc}{\contentsline {subsection}{\numberline {a)}Desenhe em escala a forma de onda da corrente na fonte, da corrente ativa Ia(t) e da onda da integral imparcial da tensão, Vî(t)}{3}{subsection.2.1}\protected@file@percent }
\@writefile{toc}{\contentsline {subsection}{\numberline {b)}Determine a potência ativa e a energia reativa.}{4}{subsection.2.2}\protected@file@percent }
\@writefile{toc}{\contentsline {subsection}{\numberline {c)}Determine as componentes reativa e residual da corrente da fonte e o fator de potência visto pela fonte.}{4}{subsection.2.3}\protected@file@percent }
\@writefile{toc}{\contentsline {section}{\numberline {Questao 3}}{5}{section.3}\protected@file@percent }
\@writefile{toc}{\contentsline {subsection}{\numberline {a)}Calcule a corrente pela fonte (instantânea e valor eficaz) antes e depois da compensação, bem como a potência reativa conforme definida por Budeanu para os seguintes casos:}{5}{subsection.3.1}\protected@file@percent }
\@writefile{toc}{\contentsline {subsubsection}{\numberline {a).1}Quando a corrente de compensação é, $Ic(t) = -0.5\sqrt  {2}\qopname  \relax o{sin}{(5t)}$ [pu] (compensação total da componente reativa na quinta harmônica)}{5}{subsubsection.3.1.1}\protected@file@percent }
\@writefile{toc}{\contentsline {subsubsection}{\numberline {a).2}Quando a corrente de compensação é $Ic(t) = 1.5\sqrt  {2}\qopname  \relax o{sin}{(5t)}$ [pu]}{6}{subsubsection.3.1.2}\protected@file@percent }
\@writefile{toc}{\contentsline {subsection}{\numberline {b)}Calcule a energia reativa da CPT antes de depois das compensações anteriores}{6}{subsection.3.2}\protected@file@percent }
\@writefile{toc}{\contentsline {subsection}{\numberline {c)}Com base na corrente reativa da CPT calcule a corrente de compensação para compensar toda a energia reativa. Determine a nova corrente pela fonte depois da compensação (instantânea e valor eficaz) e verifique se a energia reativa foi efetivamente zerada.}{7}{subsection.3.3}\protected@file@percent }
\@writefile{toc}{\contentsline {subsection}{\numberline {d)}Comente comparativamente todos os resultados.}{7}{subsection.3.4}\protected@file@percent }
